{
    "db": {
        "host": "localhost",
        "name": "jumbashop",
        "user": "jshopuser",
        "pass": "e9!sHW#vf10v",
        "port": "3306"
    },
    "nginx": {
        "host": "jumbashop.pp.ua",
        "log": "jumbashop",
        "document_root": "/home/vagrant/hosts/jumbashop",
        "fastcgi_pass": "unix:/var/run/php5-fpm.sock"
    },
    "err": {
        "display_errors": 0
    }
}